<svg width="34" height="25" viewBox="0 0 34 25" fill="none" xmlns="http://www.w3.org/2000/svg">
<rect width="34" height="3" fill="#181818"/>
<rect y="11" width="34" height="3" fill="#181818"/>
<rect y="22" width="34" height="3" fill="#181818"/>
</svg>
